…
``` r
meta.sum %>% miss_var_summary()
```

    ## # A tibble: 50 × 3
    ##    variable            n_miss pct_miss
    ##    <chr>                <int>    <num>
    ##  1 Fe_Ligands.nM          109     72.7
    ##  2 log_Kcond_FeL          109     72.7
    ##  3 Humics_µg.SRFAeq.L      98     65.3
    ##  4 CSP_µg.BSA.eq.L         96     64  
    ##  5 TEP_µg.XG.eq.L          95     63.3
    ##  6 Synechos_cell.mL        93     62  
    ##  7 Picoeuk1_cell.mL        92     61.3
    ##  8 Picoeuk2_cell.mL        92     61.3
    ##  9 Nanoeuk_cell.mL         92     61.3
    ## 10 Cryptomonas_cell.mL     91     60.7
    ## # ℹ 40 more rows
…
Preprocess the matrix by removing variables that have over 50% NA, since
it would not really make sense to impute more than half the values.

``` r
var <- meta.sum %>%
  miss_var_summary() %>%
  filter(pct_miss < 50) %>%
  pull(variable) # Variables with less than 50% NA

meta.sum.preprocess <- meta.sum[,var] # %NA < 50%
meta.sum.preprocess %>% miss_var_summary() # All variables have below 43% NA
```

    ## # A tibble: 27 × 3
    ##    variable              n_miss pct_miss
    ##    <chr>                  <int>    <num>
    ##  1 dCd_nmol.kg               64     42.7
    ##  2 dFe_nmol.kg               63     42  
    ##  3 dZn_nmol.kg               63     42  
    ##  4 Bacteria_HDNA.cell.mL     63     42  
    ##  5 Bacteria_LDNA.cell.mL     63     42  
    ##  6 Tot_bacteria_cell.mL      63     42  
    ##  7 TPZT_µM.C                 62     41.3
    ##  8 POC_µM                    56     37.3
    ##  9 d13C                      56     37.3
    ## 10 PON.µmol                  56     37.3
    ## # ℹ 17 more rows
…
diff$diff.knn <- as.vector(as.data.frame(t(outliers.stats.knn))$Number_outliers - as.data.frame(t(outliers.stats.raw))$Number_outliers)
diff$diff.bag <- as.vector(as.data.frame(t(outliers.stats.bag))$Number_outliers - as.data.frame(t(outliers.stats.raw))$Number_outliers)

#diff <- data.frame(Mean = diff.mean, knn = diff.knn, Bag = diff.bag)

colnames(diff) <- c("Mean","knn","Bag")
diff <- diff %>% 
  rownames_to_column(var = "Variable") %>% 
  pivot_longer(cols = !c("Variable"), names_to = "Method", values_to = "Diff_number_outliers")
diff
```

    ## # A tibble: 72 × 3
    ##    Variable              Method Diff_number_outliers
    ##    <chr>                 <chr>                 <dbl>
    ##  1 dCd_nmol.kg           Mean                     54
    ##  2 dCd_nmol.kg           knn                       0
    ##  3 dCd_nmol.kg           Bag                       0
    ##  4 dFe_nmol.kg           Mean                     20
    ##  5 dFe_nmol.kg           knn                       2
    ##  6 dFe_nmol.kg           Bag                       3
    ##  7 dZn_nmol.kg           Mean                     45
    ##  8 dZn_nmol.kg           knn                       0
    ##  9 dZn_nmol.kg           Bag                       0
    ## 10 Bacteria_HDNA.cell.mL Mean                     18
    ## # ℹ 62 more rows
…
